Adjust Logs
…
## 4 traces 
## 4 cases 
## 34724 instances of 11 activities 
## 16 resources 
## Events occurred from 2006-06-17 until 2012-03-26 
##  
## # Variables were mapped as follows:
## Case identifier:     vehicleclass 
## Activity identifier:     activity 
## Resource identifier:     resource 
## Activity instance identifier:    activity_instance_id 
## Timestamp:           timestamp 
## Lifecycle transition:        lifecycle 
## 
## # A tibble: 34,724 × 18
##    case_id activity   lifec…¹ resou…² timestamp           amount article dismi…³
##    <chr>   <fct>      <fct>   <fct>   <dttm>              <chr>    <dbl> <chr>  
##  1 A1      Create Fi… comple… 561     2006-07-24 00:00:00 35.0       157 NIL    
##  2 A1      Send Fine  comple… <NA>    2006-12-05 00:00:00 <NA>        NA <NA>   
##  3 A100    Create Fi… comple… 561     2006-08-02 00:00:00 35.0       157 NIL    
##  4 A100    Send Fine  comple… <NA>    2006-12-12 00:00:00 <NA>        NA <NA>   
##  5 A100    Insert Fi… comple… <NA>    2007-01-15 00:00:00 <NA>        NA <NA>   
##  6 A100    Add penal… comple… <NA>    2007-03-16 00:00:00 71.5        NA <NA>   
##  7 A100    Send for … comple… <NA>    2009-03-30 00:00:00 <NA>        NA <NA>   
##  8 A10000  Create Fi… comple… 561     2007-03-09 00:00:00 36.0       157 NIL    
##  9 A10000  Send Fine  comple… <NA>    2007-07-17 00:00:00 <NA>        NA <NA>   
## 10 A10000  Insert Fi… comple… <NA>    2007-08-02 00:00:00 <NA>        NA <NA>   
## # … with 34,714 more rows, 10 more variables: expense <chr>, lastsent <chr>,
## #   matricola <dbl>, notificationtype <chr>, paymentamount <dbl>, points <dbl>,
## #   totalpaymentamount <chr>, vehicleclass <chr>, activity_instance_id <chr>,
## #   .order <int>, and abbreviated variable names ¹​lifecycle, ²​resource,
## #   ³​dismissal
…
## 4 traces 
## 4 cases 
## 34724 instances of 11 activities 
## 16 resources 
## Events occurred from 2006-06-17 until 2012-03-26 
##  
## # Variables were mapped as follows:
## Case identifier:     vehicleclass 
## Activity identifier:     activity 
## Resource identifier:     resource 
## Activity instance identifier:    activity_instance_id 
## Timestamp:           timestamp 
## Lifecycle transition:        lifecycle 
## 
## # A tibble: 34,724 × 18
##    case_id activity   lifec…¹ resou…² timestamp           amount article dismi…³
##    <chr>   <fct>      <fct>   <fct>   <dttm>              <chr>    <dbl> <chr>  
##  1 A1      Create Fi… comple… 561     2006-07-24 00:00:00 35.0       157 NIL    
##  2 A1      Send Fine  comple… <NA>    2006-12-05 00:00:00 <NA>        NA <NA>   
##  3 A100    Create Fi… comple… 561     2006-08-02 00:00:00 35.0       157 NIL    
##  4 A100    Send Fine  comple… <NA>    2006-12-12 00:00:00 <NA>        NA <NA>   
##  5 A100    Insert Fi… comple… <NA>    2007-01-15 00:00:00 <NA>        NA <NA>   
##  6 A100    Add penal… comple… <NA>    2007-03-16 00:00:00 71.5        NA <NA>   
##  7 A100    Send for … comple… <NA>    2009-03-30 00:00:00 <NA>        NA <NA>   
##  8 A10000  Create Fi… comple… 561     2007-03-09 00:00:00 36.0       157 NIL    
##  9 A10000  Send Fine  comple… <NA>    2007-07-17 00:00:00 <NA>        NA <NA>   
## 10 A10000  Insert Fi… comple… <NA>    2007-08-02 00:00:00 <NA>        NA <NA>   
## # … with 34,714 more rows, 10 more variables: expense <chr>, lastsent <chr>,
## #   matricola <dbl>, notificationtype <chr>, paymentamount <dbl>, points <dbl>,
## #   totalpaymentamount <chr>, vehicleclass <chr>, activity_instance_id <chr>,
## #   .order <int>, and abbreviated variable names ¹​lifecycle, ²​resource,
## #   ³​dismissal
…
## 44 traces 
## 10000 cases 
## 34724 instances of 11 activities 
## 16 resources 
## Events occurred from 2006-06-17 until 2012-03-26 
##  
## # Variables were mapped as follows:
## Case identifier:     case_id 
## Activity identifier:     activity 
## Resource identifier:     resource 
## Activity instance identifier:    activity_instance_id 
## Timestamp:           timestamp 
## Lifecycle transition:        lifecycle 
## 
## # A tibble: 34,724 × 18
##    case_id activity   lifec…¹ resou…² timestamp           amount article dismi…³
##    <chr>   <fct>      <fct>   <fct>   <dttm>              <chr>    <dbl> <chr>  
##  1 A1      Create Fi… comple… 561     2006-07-24 00:00:00 35.0       157 NIL    
##  2 A1      Send Fine  comple… <NA>    2006-12-05 00:00:00 <NA>        NA <NA>   
##  3 A100    Create Fi… comple… 561     2006-08-02 00:00:00 35.0       157 NIL    
##  4 A100    Send Fine  comple… <NA>    2006-12-12 00:00:00 <NA>        NA <NA>   
##  5 A100    Insert Fi… comple… <NA>    2007-01-15 00:00:00 <NA>        NA <NA>   
##  6 A100    Add penal… comple… <NA>    2007-03-16 00:00:00 71.5        NA <NA>   
##  7 A100    Send for … comple… <NA>    2009-03-30 00:00:00 <NA>        NA <NA>   
##  8 A10000  Create Fi… comple… 561     2007-03-09 00:00:00 36.0       157 NIL    
##  9 A10000  Send Fine  comple… <NA>    2007-07-17 00:00:00 <NA>        NA <NA>   
## 10 A10000  Insert Fi… comple… <NA>    2007-08-02 00:00:00 <NA>        NA <NA>   
## # … with 34,714 more rows, 10 more variables: expense <chr>, lastsent <chr>,
## #   matricola <dbl>, notificationtype <chr>, paymentamount <dbl>, points <dbl>,
## #   totalpaymentamount <chr>, vehicleclass <chr>, activity_instance_id <chr>,
## #   .order <int>, and abbreviated variable names ¹​lifecycle, ²​resource,
## #   ³​dismissal
…
