bupaR Docs | Augment logs
…
Augment logs

library(bupaverse)
library(dplyr)

Enriching your log with calculated metrics can be done
using augment(). For example, consider trace_length().

traffic_fines %>%
    trace_length(level = "case") 

## # A tibble: 10,000 × 2
##    case_id absolute
##    <chr>      <int>
##  1 A10249         9
##  2 A10338         9
##  3 A10619         9
##  4 A10858         9
##  5 A12027         9
##  6 A12414         9
##  7 A13217         9
##  8 A1327          9
##  9 A13617         9
## 10 A13984         9
## # … with 9,990 more rows
…
