bupaR Docs | Filter case
…
## 4 traces 
## 4 cases 
## 34724 instances of 2 activities 
## 16 resources 
## Events occurred from 2006-06-17 until 2012-03-26 
##  
## # Variables were mapped as follows:
## Case identifier:     vehicleclass 
## Activity identifier:     notificationtype 
## Resource identifier:     resource 
## Activity instance identifier:    activity_instance_id 
## Timestamp:           timestamp 
## Lifecycle transition:        lifecycle 
## 
## # A tibble: 34,724 × 18
##    case_id activity   lifec…¹ resou…² timestamp           amount article dismi…³
##    <chr>   <fct>      <fct>   <fct>   <dttm>              <chr>    <dbl> <chr>  
##  1 A1      Create Fi… comple… 561     2006-07-24 00:00:00 35.0       157 NIL    
##  2 A1      Send Fine  comple… <NA>    2006-12-05 00:00:00 <NA>        NA <NA>   
##  3 A100    Create Fi… comple… 561     2006-08-02 00:00:00 35.0       157 NIL    
##  4 A100    Send Fine  comple… <NA>    2006-12-12 00:00:00 <NA>        NA <NA>   
##  5 A100    Insert Fi… comple… <NA>    2007-01-15 00:00:00 <NA>        NA <NA>   
##  6 A100    Add penal… comple… <NA>    2007-03-16 00:00:00 71.5        NA <NA>   
##  7 A100    Send for … comple… <NA>    2009-03-30 00:00:00 <NA>        NA <NA>   
##  8 A10000  Create Fi… comple… 561     2007-03-09 00:00:00 36.0       157 NIL    
##  9 A10000  Send Fine  comple… <NA>    2007-07-17 00:00:00 <NA>        NA <NA>   
## 10 A10000  Insert Fi… comple… <NA>    2007-08-02 00:00:00 <NA>        NA <NA>   
## # … with 34,714 more rows, 10 more variables: expense <chr>, lastsent <chr>,
## #   matricola <dbl>, notificationtype <chr>, paymentamount <dbl>, points <dbl>,
## #   totalpaymentamount <chr>, vehicleclass <chr>, activity_instance_id <chr>,
## #   .order <int>, and abbreviated variable names ¹​lifecycle, ²​resource,
## #   ³​dismissal
…
## 3 traces 
## 3 cases 
## 10000 instances of 1 activity 
## 14 resources 
## Events occurred from 2006-06-17 until 2009-03-14 
##  
## # Variables were mapped as follows:
## Case identifier:     vehicleclass 
## Activity identifier:     notificationtype 
## Resource identifier:     resource 
## Activity instance identifier:    activity_instance_id 
## Timestamp:           timestamp 
## Lifecycle transition:        lifecycle 
## 
## # A tibble: 10,000 × 18
##    case_id activity   lifec…¹ resou…² timestamp           amount article dismi…³
##    <chr>   <fct>      <fct>   <fct>   <dttm>              <chr>    <dbl> <chr>  
##  1 A1      Create Fi… comple… 561     2006-07-24 00:00:00 35.0       157 NIL    
##  2 A100    Create Fi… comple… 561     2006-08-02 00:00:00 35.0       157 NIL    
##  3 A10000  Create Fi… comple… 561     2007-03-09 00:00:00 36.0       157 NIL    
##  4 A10001  Create Fi… comple… 537     2007-03-19 00:00:00 36.0       157 NIL    
##  5 A10004  Create Fi… comple… 537     2007-03-20 00:00:00 36.0       157 NIL    
##  6 A10005  Create Fi… comple… 537     2007-03-20 00:00:00 36.0       157 NIL    
##  7 A10007  Create Fi… comple… 537     2007-03-20 00:00:00 36.0       157 NIL    
##  8 A10008  Create Fi… comple… 537     2007-03-20 00:00:00 36.0       157 NIL    
##  9 A10009  Create Fi… comple… 537     2007-03-20 00:00:00 22.0         7 NIL    
## 10 A1001   Create Fi… comple… 550     2006-08-02 00:00:00 21.0         7 NIL    
## # … with 9,990 more rows, 10 more variables: expense <chr>, lastsent <chr>,
## #   matricola <dbl>, notificationtype <chr>, paymentamount <dbl>, points <dbl>,
## #   totalpaymentamount <chr>, vehicleclass <chr>, activity_instance_id <chr>,
## #   .order <int>, and abbreviated variable names ¹​lifecycle, ²​resource,
## #   ³​dismissal
…
## 1 trace 
## 1 case 
## 9973 instances of 1 activity 
## 14 resources 
## Events occurred from 2006-06-17 until 2009-03-14 
##  
## # Variables were mapped as follows:
## Case identifier:     vehicleclass 
## Activity identifier:     notificationtype 
## Resource identifier:     resource 
## Activity instance identifier:    activity_instance_id 
## Timestamp:           timestamp 
## Lifecycle transition:        lifecycle 
## 
## # A tibble: 9,973 × 18
##    case_id activity   lifec…¹ resou…² timestamp           amount article dismi…³
##    <chr>   <fct>      <fct>   <fct>   <dttm>              <chr>    <dbl> <chr>  
##  1 A1      Create Fi… comple… 561     2006-07-24 00:00:00 35.0       157 NIL    
##  2 A100    Create Fi… comple… 561     2006-08-02 00:00:00 35.0       157 NIL    
##  3 A10000  Create Fi… comple… 561     2007-03-09 00:00:00 36.0       157 NIL    
##  4 A10001  Create Fi… comple… 537     2007-03-19 00:00:00 36.0       157 NIL    
##  5 A10004  Create Fi… comple… 537     2007-03-20 00:00:00 36.0       157 NIL    
##  6 A10005  Create Fi… comple… 537     2007-03-20 00:00:00 36.0       157 NIL    
##  7 A10007  Create Fi… comple… 537     2007-03-20 00:00:00 36.0       157 NIL    
##  8 A10008  Create Fi… comple… 537     2007-03-20 00:00:00 36.0       157 NIL    
##  9 A10009  Create Fi… comple… 537     2007-03-20 00:00:00 22.0         7 NIL    
## 10 A1001   Create Fi… comple… 550     2006-08-02 00:00:00 21.0         7 NIL    
## # … with 9,963 more rows, 10 more variables: expense <chr>, lastsent <chr>,
## #   matricola <dbl>, notificationtype <chr>, paymentamount <dbl>, points <dbl>,
## #   totalpaymentamount <chr>, vehicleclass <chr>, activity_instance_id <chr>,
## #   .order <int>, and abbreviated variable names ¹​lifecycle, ²​resource,
## #   ³​dismissal
…
## 4 traces 
## 4 cases 
## 34724 instances of 2 activities 
## 16 resources 
## Events occurred from 2006-06-17 until 2012-03-26 
##  
## # Variables were mapped as follows:
## Case identifier:     vehicleclass 
## Activity identifier:     notificationtype 
## Resource identifier:     resource 
## Activity instance identifier:    activity_instance_id 
## Timestamp:           timestamp 
## Lifecycle transition:        lifecycle 
## 
## # A tibble: 34,724 × 18
##    case_id activity   lifec…¹ resou…² timestamp           amount article dismi…³
##    <chr>   <fct>      <fct>   <fct>   <dttm>              <chr>    <dbl> <chr>  
##  1 A1      Create Fi… comple… 561     2006-07-24 00:00:00 35.0       157 NIL    
##  2 A1      Send Fine  comple… <NA>    2006-12-05 00:00:00 <NA>        NA <NA>   
##  3 A100    Create Fi… comple… 561     2006-08-02 00:00:00 35.0       157 NIL    
##  4 A100    Send Fine  comple… <NA>    2006-12-12 00:00:00 <NA>        NA <NA>   
##  5 A100    Insert Fi… comple… <NA>    2007-01-15 00:00:00 <NA>        NA <NA>   
##  6 A100    Add penal… comple… <NA>    2007-03-16 00:00:00 71.5        NA <NA>   
##  7 A100    Send for … comple… <NA>    2009-03-30 00:00:00 <NA>        NA <NA>   
##  8 A10000  Create Fi… comple… 561     2007-03-09 00:00:00 36.0       157 NIL    
##  9 A10000  Send Fine  comple… <NA>    2007-07-17 00:00:00 <NA>        NA <NA>   
## 10 A10000  Insert Fi… comple… <NA>    2007-08-02 00:00:00 <NA>        NA <NA>   
## # … with 34,714 more rows, 10 more variables: expense <chr>, lastsent <chr>,
## #   matricola <dbl>, notificationtype <chr>, paymentamount <dbl>, points <dbl>,
## #   totalpaymentamount <chr>, vehicleclass <chr>, activity_instance_id <chr>,
## #   .order <int>, and abbreviated variable names ¹​lifecycle, ²​resource,
## #   ³​dismissal
…
## 3 traces 
## 3 cases 
## 24751 instances of 2 activities 
## 13 resources 
## Events occurred from 2006-07-27 until 2012-03-26 
##  
## # Variables were mapped as follows:
## Case identifier:     vehicleclass 
## Activity identifier:     notificationtype 
## Resource identifier:     resource 
## Activity instance identifier:    activity_instance_id 
## Timestamp:           timestamp 
## Lifecycle transition:        lifecycle 
## 
## # A tibble: 24,751 × 18
##    case_id activity   lifec…¹ resou…² timestamp           amount article dismi…³
##    <chr>   <fct>      <fct>   <fct>   <dttm>              <chr>    <dbl> <chr>  
##  1 A1      Send Fine  comple… <NA>    2006-12-05 00:00:00 <NA>        NA <NA>   
##  2 A100    Send Fine  comple… <NA>    2006-12-12 00:00:00 <NA>        NA <NA>   
##  3 A100    Insert Fi… comple… <NA>    2007-01-15 00:00:00 <NA>        NA <NA>   
##  4 A100    Add penal… comple… <NA>    2007-03-16 00:00:00 71.5        NA <NA>   
##  5 A100    Send for … comple… <NA>    2009-03-30 00:00:00 <NA>        NA <NA>   
##  6 A10000  Send Fine  comple… <NA>    2007-07-17 00:00:00 <NA>        NA <NA>   
##  7 A10000  Insert Fi… comple… <NA>    2007-08-02 00:00:00 <NA>        NA <NA>   
##  8 A10000  Add penal… comple… <NA>    2007-10-01 00:00:00 74.0        NA <NA>   
##  9 A10000  Payment    comple… <NA>    2008-09-09 00:00:00 <NA>        NA <NA>   
## 10 A10001  Send Fine  comple… <NA>    2007-07-17 00:00:00 <NA>        NA <NA>   
## # … with 24,741 more rows, 10 more variables: expense <chr>, lastsent <chr>,
## #   matricola <dbl>, notificationtype <chr>, paymentamount <dbl>, points <dbl>,
## #   totalpaymentamount <chr>, vehicleclass <chr>, activity_instance_id <chr>,
## #   .order <int>, and abbreviated variable names ¹​lifecycle, ²​resource,
## #   ³​dismissal
…
## 2 traces 
## 492 cases 
## 2694 instances of 7 activities 
## 7 resources 
## Events occurred from 2017-01-02 11:41:53 until 2018-05-03 03:34:55 
##  
## # Variables were mapped as follows:
## Case identifier:     patient 
## Activity identifier:     handling 
## Resource identifier:     employee 
## Activity instance identifier:    handling_id 
## Timestamp:           time 
## Lifecycle transition:        registration_type 
## 
## # A tibble: 5,388 × 7
##    handling     patient employee handling_id regist…¹ time                .order
##    <fct>        <chr>   <fct>    <chr>       <fct>    <dttm>               <int>
##  1 Registration 1       r1       1           start    2017-01-02 11:41:53      1
##  2 Registration 2       r1       2           start    2017-01-02 11:41:53      2
##  3 Registration 3       r1       3           start    2017-01-04 01:34:05      3
##  4 Registration 4       r1       4           start    2017-01-04 01:34:04      4
##  5 Registration 5       r1       5           start    2017-01-04 16:07:47      5
##  6 Registration 6       r1       6           start    2017-01-04 16:07:47      6
##  7 Registration 7       r1       7           start    2017-01-05 04:56:11      7
##  8 Registration 8       r1       8           start    2017-01-05 04:56:11      8
##  9 Registration 9       r1       9           start    2017-01-06 05:58:54      9
## 10 Registration 10      r1       10          start    2017-01-06 05:58:54     10
## # … with 5,378 more rows, and abbreviated variable name ¹​registration_type
…
And use reverse = TRUE.

sepsis %>%
    filter_trace_frequency(interval = c(5,NA), reverse = TRUE) %>%
    traces()

## # A tibble: 835 × 3
##    trace                                                         absol…¹ relat…²
##    <chr>                                                           <int>   <dbl>
##  1 ER Registration,ER Triage,ER Sepsis Triage,CRP,LacticAcid,Le…       4 0.00440
##  2 ER Registration,ER Triage,ER Sepsis Triage,LacticAcid,Leucoc…       4 0.00440
##  3 ER Registration,ER Triage,ER Sepsis Triage,IV Liquid,CRP,Leu…       4 0.00440
##  4 ER Registration,ER Triage,ER Sepsis Triage,CRP,Leucocytes,Ad…       4 0.00440
##  5 ER Registration,ER Triage,Leucocytes,CRP,ER Sepsis Triage           4 0.00440
##  6 ER Registration,ER Triage,ER Sepsis Triage,Leucocytes,CRP,La…       4 0.00440
##  7 ER Registration,ER Triage,ER Sepsis Triage,Leucocytes,Lactic…       4 0.00440
##  8 ER Registration,ER Triage,ER Sepsis Triage,IV Liquid,Leucocy…       3 0.00330
##  9 ER Registration,ER Triage,LacticAcid,Leucocytes,CRP,ER Sepsi…       3 0.00330
## 10 ER Registration,ER Triage,CRP,LacticAcid,Leucocytes,ER Sepsi…       3 0.00330
## # … with 825 more rows, and abbreviated variable names ¹​absolute_frequency,
## #   ²​relative_frequency

Percentage-based

Using filter_trace_frequency() with argument
percentage, you can give priority to cases with a frequent
trace. For example, setting percentage = 0.2 will select at
least 20% of the cases, starting with those that have the highest
frequency.

sepsis %>%
    filter_trace_frequency(percentage = 0.8) %>%
    traces()

## # A tibble: 846 × 3
##    trace                                                         absol…¹ relat…²
##    <chr>                                                           <int>   <dbl>
##  1 ER Registration,ER Triage,ER Sepsis Triage                         35 0.0333 
##  2 ER Registration,ER Triage,ER Sepsis Triage,Leucocytes,CRP          24 0.0229 
##  3 ER Registration,ER Triage,ER Sepsis Triage,CRP,Leucocytes          22 0.0210 
##  4 ER Registration,ER Triage,ER Sepsis Triage,CRP,LacticAcid,Le…      13 0.0124 
##  5 ER Registration,ER Triage,ER Sepsis Triage,Leucocytes,CRP,La…      11 0.0105 
##  6 ER Registration,ER Triage,ER Sepsis Triage,Leucocytes,CRP,La…       9 0.00857
##  7 ER Registration,ER Triage,ER Sepsis Triage,Leucocytes,Lactic…       7 0.00667
##  8 ER Registration,ER Triage,ER Sepsis Triage,Leucocytes,CRP,Ad…       5 0.00476
##  9 ER Registration,ER Triage,ER Sepsis Triage,LacticAcid,Leucoc…       5 0.00476
## 10 ER Registration,ER Triage,ER Sepsis Triage,CRP,Leucocytes,La…       5 0.00476
## # … with 836 more rows, and abbreviated variable names ¹​absolute_frequency,
## #   ²​relative_frequency

You can again set reverse = TRUE if you instead want 80%
of the cases with the lowest frequency.

sepsis %>%
    filter_trace_frequency(percentage = 0.2, reverse = TRUE) %>%
    traces()

## # A tibble: 784 × 3
##    trace                                                         absol…¹ relat…²
##    <chr>                                                           <int>   <dbl>
##  1 ER Registration,ER Triage,ER Sepsis Triage,LacticAcid,Leucoc…       1 0.00128
##  2 ER Registration,ER Triage,ER Sepsis Triage,IV Antibiotics,Le…       1 0.00128
##  3 ER Registration,ER Triage,ER Sepsis Triage,CRP,Leucocytes,IV…       1 0.00128
##  4 ER Registration,ER Triage,ER Sepsis Triage,LacticAcid,Leucoc…       1 0.00128
##  5 ER Registration,IV Liquid,ER Triage,Leucocytes,CRP,LacticAci…       1 0.00128
##  6 ER Registration,ER Triage,ER Sepsis Triage,CRP,LacticAcid,Le…       1 0.00128
##  7 ER Registration,ER Triage,ER Sepsis Triage,Leucocytes,CRP,La…       1 0.00128
##  8 ER Registration,ER Triage,CRP,LacticAcid,Leucocytes,ER Sepsi…       1 0.00128
##  9 ER Registration,ER Triage,ER Sepsis Triage,Leucocytes,CRP,La…       1 0.00128
## 10 ER Registration,ER Triage,Leucocytes,CRP,LacticAcid,ER Sepsi…       1 0.00128
## # … with 774 more rows, and abbreviated variable names ¹​absolute_frequency,
## #   ²​relative_frequency
…
Interval-based

Using filter_trace_length() with argument
interval, you can select cases of which the trace length
falls within a certain interval. For example, all the cases of sepsis
with a trace length between 10 and 50. Changes are illustrated with traces().

sepsis %>%
    filter_trace_length(interval = c(10,50)) %>%
    traces()

## # A tibble: 703 × 3
##    trace                                                         absol…¹ relat…²
##    <chr>                                                           <int>   <dbl>
##  1 ER Registration,ER Triage,ER Sepsis Triage,LacticAcid,Leucoc…       4 0.00540
##  2 ER Registration,ER Triage,ER Sepsis Triage,Leucocytes,CRP,La…       4 0.00540
##  3 ER Registration,ER Triage,ER Sepsis Triage,Leucocytes,Lactic…       4 0.00540
##  4 ER Registration,ER Triage,ER Sepsis Triage,IV Liquid,IV Anti…       3 0.00405
##  5 ER Registration,ER Triage,ER Sepsis Triage,Leucocytes,CRP,La…       3 0.00405
##  6 ER Registration,ER Triage,ER Sepsis Triage,CRP,LacticAcid,Le…       3 0.00405
##  7 ER Registration,ER Triage,ER Sepsis Triage,IV Liquid,Leucocy…       3 0.00405
##  8 ER Registration,ER Triage,ER Sepsis Triage,LacticAcid,Leucoc…       2 0.00270
##  9 ER Registration,ER Triage,ER Sepsis Triage,LacticAcid,CRP,Le…       2 0.00270
## 10 ER Registration,ER Triage,ER Sepsis Triage,Leucocytes,CRP,La…       2 0.00270
## # … with 693 more rows, and abbreviated variable names ¹​absolute_frequency,
## #   ²​relative_frequency

Also here you can use half-open intervals.

sepsis %>%
    filter_trace_length(interval = c(10,NA)) %>%
    traces()

## # A tibble: 715 × 3
##    trace                                                         absol…¹ relat…²
##    <chr>                                                           <int>   <dbl>
##  1 ER Registration,ER Triage,ER Sepsis Triage,LacticAcid,Leucoc…       4 0.00531
##  2 ER Registration,ER Triage,ER Sepsis Triage,Leucocytes,CRP,La…       4 0.00531
##  3 ER Registration,ER Triage,ER Sepsis Triage,Leucocytes,Lactic…       4 0.00531
##  4 ER Registration,ER Triage,ER Sepsis Triage,IV Liquid,IV Anti…       3 0.00398
##  5 ER Registration,ER Triage,ER Sepsis Triage,Leucocytes,CRP,La…       3 0.00398
##  6 ER Registration,ER Triage,ER Sepsis Triage,CRP,LacticAcid,Le…       3 0.00398
##  7 ER Registration,ER Triage,ER Sepsis Triage,IV Liquid,Leucocy…       3 0.00398
##  8 ER Registration,ER Triage,ER Sepsis Triage,LacticAcid,Leucoc…       2 0.00266
##  9 ER Registration,ER Triage,ER Sepsis Triage,LacticAcid,CRP,Le…       2 0.00266
## 10 ER Registration,ER Triage,ER Sepsis Triage,Leucocytes,CRP,La…       2 0.00266
## # … with 705 more rows, and abbreviated variable names ¹​absolute_frequency,
## #   ²​relative_frequency

And use reverse = TRUE.

sepsis %>%
    filter_trace_length(interval = c(10,NA), reverse = TRUE) %>%
    traces()

## # A tibble: 131 × 3
##    trace                                                         absol…¹ relat…²
##    <chr>                                                           <int>   <dbl>
##  1 ER Registration,ER Triage,ER Sepsis Triage                         35  0.118 
##  2 ER Registration,ER Triage,ER Sepsis Triage,Leucocytes,CRP          24  0.0808
##  3 ER Registration,ER Triage,ER Sepsis Triage,CRP,Leucocytes          22  0.0741
##  4 ER Registration,ER Triage,ER Sepsis Triage,CRP,LacticAcid,Le…      13  0.0438
##  5 ER Registration,ER Triage,ER Sepsis Triage,Leucocytes,CRP,La…      11  0.0370
##  6 ER Registration,ER Triage,ER Sepsis Triage,Leucocytes,CRP,La…       9  0.0303
##  7 ER Registration,ER Triage,ER Sepsis Triage,Leucocytes,Lactic…       7  0.0236
##  8 ER Registration,ER Triage,ER Sepsis Triage,Leucocytes,CRP,Ad…       5  0.0168
##  9 ER Registration,ER Triage,ER Sepsis Triage,LacticAcid,Leucoc…       5  0.0168
## 10 ER Registration,ER Triage,ER Sepsis Triage,CRP,Leucocytes,La…       5  0.0168
## # … with 121 more rows, and abbreviated variable names ¹​absolute_frequency,
## #   ²​relative_frequency
…
