bupaR Docs | Data Quality
…
## # Log of 105 events consisting of:
## 14 traces 
## 22 cases 
## 53 instances of 9 activities 
## 12 resources 
## Events occurred from NA until NA 
##  
## # Variables were mapped as follows:
## Case identifier:     patient_visit_nr 
## Activity identifier:     activity 
## Resource identifier:     originator 
## Timestamps:      start, complete 
## 
## # A tibble: 53 × 6
##    activity  patient_visit_nr originator start               complete           
##    <chr>                <dbl> <chr>      <dttm>              <dttm>             
##  1 registra…              510 Clerk 9    2017-11-20 10:18:17 2017-11-20 10:20:06
##  2 Registra…              512 Clerk 12   2017-11-20 10:33:14 2017-11-20 10:37:00
##  3 Triage                 510 Nurse 27   2017-11-20 10:34:08 2017-11-20 10:41:48
##  4 Triage                 512 Nurse 27   2017-11-20 10:44:12 2017-11-20 10:50:17
##  5 Clinical…              512 Doctor 7   2017-11-20 11:27:12 2017-11-20 11:33:57
##  6 Clinical…              510 Doctor 7   2017-11-20 11:35:01 2017-11-20 11:36:09
##  7 Triage                 517 Nurse 17   2017-11-21 11:35:16 2017-11-21 11:39:00
##  8 Registra…              518 Clerk 12   2017-11-21 11:45:16 2017-11-21 11:22:16
##  9 Registra…              518 Clerk 6    2017-11-21 11:45:16 2017-11-21 11:22:16
## 10 Registra…              518 Clerk 9    2017-11-21 11:45:16 2017-11-21 11:22:16
## # ℹ 43 more rows
## # ℹ 1 more variable: .order <int>
…
## # Log of 105 events consisting of:
## 14 traces 
## 22 cases 
## 53 instances of 9 activities 
## 12 resources 
## Events occurred from NA until NA 
##  
## # Variables were mapped as follows:
## Case identifier:     patient_visit_nr 
## Activity identifier:     activity 
## Resource identifier:     originator 
## Timestamps:      start, complete 
## 
## # A tibble: 53 × 6
##    activity  originator patient_visit_nr start               complete           
##    <chr>     <chr>                 <dbl> <dttm>              <dttm>             
##  1 registra… Clerk 9                 510 2017-11-20 10:18:17 2017-11-20 10:20:06
##  2 Registra… Clerk 12                512 2017-11-20 10:33:14 2017-11-20 10:37:00
##  3 Triage    Nurse 27                510 2017-11-20 10:34:08 2017-11-20 10:41:48
##  4 Triage    Nurse 27                512 2017-11-20 10:44:12 2017-11-20 10:50:17
##  5 Clinical… Doctor 7                512 2017-11-20 11:27:12 2017-11-20 11:33:57
##  6 Clinical… Doctor 7                510 2017-11-20 11:35:01 2017-11-20 11:36:09
##  7 Triage    Nurse 17                517 2017-11-21 11:35:16 2017-11-21 11:39:00
##  8 Registra… Clerk 12                518 2017-11-21 11:45:16 2017-11-21 11:22:16
##  9 Registra… Clerk 6                 518 2017-11-21 11:45:16 2017-11-21 11:22:16
## 10 Registra… Clerk 9                 518 2017-11-21 11:45:16 2017-11-21 11:22:16
## # ℹ 43 more rows
## # ℹ 1 more variable: .order <int>
…
