Developer Guide
…
## 846 traces 
## 1050 cases 
## 15214 instances of 16 activities 
## 26 resources 
## Events occurred from 2013-11-07 08:18:29 until 2015-06-05 12:25:11 
##  
## # Variables were mapped as follows:
## Case identifier:     case_id 
## Activity identifier:     activity 
## Resource identifier:     resource 
## Activity instance identifier:    activity_instance_id 
## Timestamp:           timestamp 
## Lifecycle transition:        lifecycle 
## 
## # A tibble: 15,214 × 8
##    oligurie case_id activity  activ…¹ timestamp           resou…² lifec…³ .order
##    <lgl>    <chr>   <fct>     <chr>   <dttm>              <fct>   <fct>    <int>
##  1 FALSE    A       ER Regis… 1       2014-10-22 11:15:41 A       comple…      1
##  2 NA       A       Leucocyt… 2       2014-10-22 11:27:00 B       comple…      2
##  3 NA       A       CRP       3       2014-10-22 11:27:00 B       comple…      3
##  4 NA       A       LacticAc… 4       2014-10-22 11:27:00 B       comple…      4
##  5 NA       A       ER Triage 5       2014-10-22 11:33:37 C       comple…      5
##  6 NA       A       ER Sepsi… 6       2014-10-22 11:34:00 A       comple…      6
##  7 NA       A       IV Liquid 7       2014-10-22 14:03:47 A       comple…      7
##  8 NA       A       IV Antib… 8       2014-10-22 14:03:47 A       comple…      8
##  9 NA       A       Admissio… 9       2014-10-22 14:13:19 D       comple…      9
## 10 NA       A       CRP       10      2014-10-24 09:00:00 B       comple…     10
## # … with 15,204 more rows, and abbreviated variable names
## #   ¹​activity_instance_id, ²​resource, ³​lifecycle

This behavior can be turned of using the force_df = TRUE
argument. In that case, the select will work just like a traditional
select, and the result will be a normal
data.frame, no longer an eventlog.

sepsis %>%
    select(oligurie, force_df = TRUE)

## # A tibble: 15,214 × 1
##    oligurie
##    <lgl>   
##  1 FALSE   
##  2 NA      
##  3 NA      
##  4 NA      
##  5 NA      
##  6 NA      
##  7 NA      
##  8 NA      
##  9 NA      
## 10 NA      
## # … with 15,204 more rows
…
## 846 traces 
## 1050 cases 
## 15214 instances of 16 activities 
## 26 resources 
## Events occurred from 2013-11-07 08:18:29 until 2015-06-05 12:25:11 
##  
## # Variables were mapped as follows:
## Case identifier:     case_id 
## Activity identifier:     activity 
## Resource identifier:     resource 
## Activity instance identifier:    activity_instance_id 
## Timestamp:           timestamp 
## Lifecycle transition:        lifecycle 
## 
## # A tibble: 15,214 × 7
##    case_id activity         activit…¹ timestamp           resou…² lifec…³ .order
##    <chr>   <fct>            <chr>     <dttm>              <fct>   <fct>    <int>
##  1 A       ER Registration  1         2014-10-22 11:15:41 A       comple…      1
##  2 A       Leucocytes       2         2014-10-22 11:27:00 B       comple…      2
##  3 A       CRP              3         2014-10-22 11:27:00 B       comple…      3
##  4 A       LacticAcid       4         2014-10-22 11:27:00 B       comple…      4
##  5 A       ER Triage        5         2014-10-22 11:33:37 C       comple…      5
##  6 A       ER Sepsis Triage 6         2014-10-22 11:34:00 A       comple…      6
##  7 A       IV Liquid        7         2014-10-22 14:03:47 A       comple…      7
##  8 A       IV Antibiotics   8         2014-10-22 14:03:47 A       comple…      8
##  9 A       Admission NC     9         2014-10-22 14:13:19 D       comple…      9
## 10 A       CRP              10        2014-10-24 09:00:00 B       comple…     10
## # … with 15,204 more rows, and abbreviated variable names
## #   ¹​activity_instance_id, ²​resource, ³​lifecycle

If you want to select only specific eventlog-classifiers, you can use
the function selects_ids(). Because you will typically not
select all ids (otherwise you can use select()), this will by default
turn your object to a data.frame.

sepsis %>%
    bupaR::select_ids(activity_id, case_id)

## # A tibble: 15,214 × 2
##    activity         case_id
##    <fct>            <chr>  
##  1 ER Registration  A      
##  2 Leucocytes       A      
##  3 CRP              A      
##  4 LacticAcid       A      
##  5 ER Triage        A      
##  6 ER Sepsis Triage A      
##  7 IV Liquid        A      
##  8 IV Antibiotics   A      
##  9 Admission NC     A      
## 10 CRP              A      
## # … with 15,204 more rows
…
## 7 traces 
## 500 cases 
## 2721 instances of 7 activities 
## 7 resources 
## Events occurred from 2017-01-02 11:41:53 until 2018-05-05 07:16:02 
##  
## # Variables were mapped as follows:
## Case identifier:     patient 
## Activity identifier:     handling 
## Resource identifier:     employee 
## Activity instance identifier:    handling_id 
## Timestamp:           time 
## Lifecycle transition:        registration_type 
## 
## # A tibble: 5,442 × 7
##    handling     patient employee handling_id regist…¹ time                .order
##    <fct>        <chr>   <fct>    <chr>       <fct>    <dttm>               <int>
##  1 Registration 1       r1       1           start    2017-01-02 11:41:53      1
##  2 Registration 2       r1       2           start    2017-01-02 11:41:53      2
##  3 Registration 3       r1       3           start    2017-01-04 01:34:05      3
##  4 Registration 4       r1       4           start    2017-01-04 01:34:04      4
##  5 Registration 5       r1       5           start    2017-01-04 16:07:47      5
##  6 Registration 6       r1       6           start    2017-01-04 16:07:47      6
##  7 Registration 7       r1       7           start    2017-01-05 04:56:11      7
##  8 Registration 8       r1       8           start    2017-01-05 04:56:11      8
##  9 Registration 9       r1       9           start    2017-01-06 05:58:54      9
## 10 Registration 10      r1       10          start    2017-01-06 05:58:54     10
## # … with 5,432 more rows, and abbreviated variable name ¹​registration_type
…
## 7 traces 
## 500 cases 
## 2721 instances of 7 activities 
## 7 resources 
## Events occurred from 2017-01-02 11:41:53 until 2018-05-05 07:16:02 
##  
## # Variables were mapped as follows:
## Case identifier:     patient 
## Activity identifier:     handling 
## Resource identifier:     employee 
## Activity instance identifier:    handling_id 
## Timestamp:           time 
## Lifecycle transition:        registration_type 
## 
## # A tibble: 5,442 × 7
##    handling     patient employee handling_id regist…¹ time                .order
##    <fct>        <chr>   <fct>    <chr>       <fct>    <dttm>               <int>
##  1 Registration 1       r1       1           start    2017-01-02 11:41:53      1
##  2 Registration 2       r1       2           start    2017-01-02 11:41:53      2
##  3 Registration 3       r1       3           start    2017-01-04 01:34:05      3
##  4 Registration 4       r1       4           start    2017-01-04 01:34:04      4
##  5 Registration 5       r1       5           start    2017-01-04 16:07:47      5
##  6 Registration 6       r1       6           start    2017-01-04 16:07:47      6
##  7 Registration 7       r1       7           start    2017-01-05 04:56:11      7
##  8 Registration 8       r1       8           start    2017-01-05 04:56:11      8
##  9 Registration 9       r1       9           start    2017-01-06 05:58:54      9
## 10 Registration 10      r1       10          start    2017-01-06 05:58:54     10
## # … with 5,432 more rows, and abbreviated variable name ¹​registration_type
…
## 7 traces 
## 500 cases 
## 2721 instances of 7 activities 
## 7 resources 
## Events occurred from 2017-01-02 11:41:53 until 2018-05-05 07:16:02 
##  
## # Variables were mapped as follows:
## Case identifier:     patient 
## Activity identifier:     handling 
## Resource identifier:     employee 
## Activity instance identifier:    handling_id 
## Timestamp:           time 
## Lifecycle transition:        registration_type 
## 
## # A tibble: 5,442 × 7
##    handling     patient employee handling_id regist…¹ time                .order
##    <fct>        <chr>   <fct>    <chr>       <fct>    <dttm>               <int>
##  1 Registration 1       r1       1           start    2017-01-02 11:41:53      1
##  2 Registration 2       r1       2           start    2017-01-02 11:41:53      2
##  3 Registration 3       r1       3           start    2017-01-04 01:34:05      3
##  4 Registration 4       r1       4           start    2017-01-04 01:34:04      4
##  5 Registration 5       r1       5           start    2017-01-04 16:07:47      5
##  6 Registration 6       r1       6           start    2017-01-04 16:07:47      6
##  7 Registration 7       r1       7           start    2017-01-05 04:56:11      7
##  8 Registration 8       r1       8           start    2017-01-05 04:56:11      8
##  9 Registration 9       r1       9           start    2017-01-06 05:58:54      9
## 10 Registration 10      r1       10          start    2017-01-06 05:58:54     10
## # … with 5,432 more rows, and abbreviated variable name ¹​registration_type
…
