Generic filtering
…
## 2 traces 
## 10 cases 
## 55 instances of 7 activities 
## 7 resources 
## Events occurred from 2017-01-02 11:41:53 until 2017-01-11 11:39:30 
##  
## # Variables were mapped as follows:
## Case identifier:     patient 
## Activity identifier:     handling 
## Resource identifier:     employee 
## Activity instance identifier:    handling_id 
## Timestamp:           time 
## Lifecycle transition:        registration_type 
## 
## # A tibble: 110 × 7
##    handling     patient employee handling_id regist…¹ time                .order
##    <fct>        <chr>   <fct>    <chr>       <fct>    <dttm>               <int>
##  1 Registration 1       r1       1           start    2017-01-02 11:41:53      1
##  2 Registration 2       r1       2           start    2017-01-02 11:41:53      2
##  3 Registration 3       r1       3           start    2017-01-04 01:34:05      3
##  4 Registration 4       r1       4           start    2017-01-04 01:34:04      4
##  5 Registration 5       r1       5           start    2017-01-04 16:07:47      5
##  6 Registration 6       r1       6           start    2017-01-04 16:07:47      6
##  7 Registration 7       r1       7           start    2017-01-05 04:56:11      7
##  8 Registration 8       r1       8           start    2017-01-05 04:56:11      8
##  9 Registration 9       r1       9           start    2017-01-06 05:58:54      9
## 10 Registration 10      r1       10          start    2017-01-06 05:58:54     10
## # … with 100 more rows, and abbreviated variable name ¹​registration_type
…
## 3 traces 
## 10 cases 
## 52 instances of 7 activities 
## 7 resources 
## Events occurred from 2017-03-30 13:32:50 until 2018-05-05 07:16:02 
##  
## # Variables were mapped as follows:
## Case identifier:     patient 
## Activity identifier:     handling 
## Resource identifier:     employee 
## Activity instance identifier:    handling_id 
## Timestamp:           time 
## Lifecycle transition:        registration_type 
## 
## # A tibble: 104 × 7
##    handling     patient employee handling_id regist…¹ time                .order
##    <fct>        <chr>   <fct>    <chr>       <fct>    <dttm>               <int>
##  1 Registration 81      r1       81          start    2017-03-30 13:32:50      1
##  2 Registration 94      r1       94          start    2017-04-06 06:57:39      2
##  3 Registration 166     r1       166         start    2017-06-13 02:52:24      3
##  4 Registration 336     r1       336         start    2017-11-17 07:53:13      4
##  5 Registration 367     r1       367         start    2017-12-11 18:06:24      5
##  6 Registration 370     r1       370         start    2017-12-12 10:43:15      6
##  7 Registration 371     r1       371         start    2017-12-16 15:24:22      7
##  8 Registration 386     r1       386         start    2018-01-03 15:29:22      8
##  9 Registration 447     r1       447         start    2018-03-04 00:25:11      9
## 10 Registration 500     r1       500         start    2018-05-01 22:07:54     10
## # … with 94 more rows, and abbreviated variable name ¹​registration_type
…
