bupaR Docs | Multi-dimensional analysis
…
## 44 traces 
## 10000 cases 
## 34724 instances of 11 activities 
## 16 resources 
## Events occurred from 2006-06-17 until 2012-03-26 
##  
## # Variables were mapped as follows:
## Case identifier:     case_id 
## Activity identifier:     activity 
## Resource identifier:     resource 
## Activity instance identifier:    activity_instance_id 
## Timestamp:           timestamp 
## Lifecycle transition:        lifecycle 
## 
## # A tibble: 34,724 × 20
##    case_id activity   lifec…¹ resou…² timestamp           amount article dismi…³
##    <chr>   <fct>      <fct>   <fct>   <dttm>              <chr>    <dbl> <chr>  
##  1 A1      Create Fi… comple… 561     2006-07-24 00:00:00 35.0       157 NIL    
##  2 A1      Send Fine  comple… <NA>    2006-12-05 00:00:00 <NA>        NA <NA>   
##  3 A100    Create Fi… comple… 561     2006-08-02 00:00:00 35.0       157 NIL    
##  4 A100    Send Fine  comple… <NA>    2006-12-12 00:00:00 <NA>        NA <NA>   
##  5 A100    Insert Fi… comple… <NA>    2007-01-15 00:00:00 <NA>        NA <NA>   
##  6 A100    Add penal… comple… <NA>    2007-03-16 00:00:00 71.5        NA <NA>   
##  7 A100    Send for … comple… <NA>    2009-03-30 00:00:00 <NA>        NA <NA>   
##  8 A10000  Create Fi… comple… 561     2007-03-09 00:00:00 36.0       157 NIL    
##  9 A10000  Send Fine  comple… <NA>    2007-07-17 00:00:00 <NA>        NA <NA>   
## 10 A10000  Insert Fi… comple… <NA>    2007-08-02 00:00:00 <NA>        NA <NA>   
## # … with 34,714 more rows, 12 more variables: expense <chr>, lastsent <chr>,
## #   matricola <dbl>, notificationtype <chr>, paymentamount <dbl>, points <dbl>,
## #   totalpaymentamount <chr>, vehicleclass <chr>, activity_instance_id <chr>,
## #   .order <int>, throughput_time <drtn>, throughput_time_bin <fct>, and
## #   abbreviated variable names ¹​lifecycle, ²​resource, ³​dismissal
…
Finally, note that you are not restricted to combining calculated
metrics. You can also combine metrics with data attributes.

eventdataR::hospital %>%
    group_by(group) %>%
    trace_length()

## # A tibble: 43 × 9
##    group                      min    q1 median  mean    q3   max st_dev   iqr
##    <fct>                    <int> <dbl>  <dbl> <dbl> <dbl> <int>  <dbl> <dbl>
##  1 Anesthesiology               1     1      1  1.12  1        2  0.354  0   
##  2 Anesthesiology clinic        1     1      1  1.03  1        2  0.174  0   
##  3 Cardiology clinic            3     3      3  3     3        3 NA      0   
##  4 Cardiovascular clinics       1     1      1  1.88  2        8  1.31   1   
##  5 Clinical Neurophysiology     1     1      1  1     1        1 NA      0   
##  6 Day Centre - treatment       1     1      2  1.76  2        3  0.577  1   
##  7 Day Centre - ward            1     2      2  1.93  2        4  0.521  0   
##  8 Diet Studies                 1     1      1  2.12  2       18  2.25   1   
##  9 Emergency room               1     1      1  1.5   1.75     3  0.837  0.75
## 10 Endoscopy                    1     1      2  2.27  3        5  1.42   2   
## # … with 33 more rows
…
