Introduction to processpredictR: a basic workflow
…
necessary features and target variables are calculated and/or
added

The returned object is of class ppred_examples_df, which
inherits from tbl_df.

In this tutorial we will use the traffic_fines event log
from eventdataR. Note that both eventlog and
activitylog objects, as defined by bupaR are
supported.

df <- prepare_examples(traffic_fines, task = "outcome")
df
#> # A tibble: 27,001 × 11
#>    ith_case case_id prefix                 prefi…¹ outcome     k activ…² resou…³
#>       <int> <chr>   <chr>                  <list>  <fct>   <dbl> <chr>   <fct>  
#>  1        1 A2127   Create Fine            <chr>   Payment     0 Create… 537    
#>  2        1 A2127   Create Fine - Payment  <chr>   Payment     1 Payment <NA>   
#>  3        2 A15     Create Fine            <chr>   Send f…     0 Create… 561    
#>  4        2 A15     Create Fine - Send Fi… <chr>   Send f…     1 Send F… <NA>   
#>  5        2 A15     Create Fine - Send Fi… <chr>   Send f…     2 Insert… <NA>   
#>  6        2 A15     Create Fine - Send Fi… <chr>   Send f…     3 Add pe… <NA>   
#>  7        2 A15     Create Fine - Send Fi… <chr>   Send f…     4 Send f… <NA>   
#>  8        3 A1820   Create Fine            <chr>   Payment     0 Create… 563    
#>  9        3 A1820   Create Fine - Payment  <chr>   Payment     1 Payment <NA>   
#> 10        4 A1451   Create Fine            <chr>   Send f…     0 Create… 560    
#> # … with 26,991 more rows, 3 more variables: start_time <dttm>,
#> #   end_time <dttm>, remaining_trace_list <list>, and abbreviated variable
#> #   names ¹​prefix_list, ²​activity, ³​resource
…
