Public Logs
…
## 846 traces 
## 1050 cases 
## 15214 instances of 16 activities 
## 26 resources 
## Events occurred from 2013-11-07 08:18:29 until 2015-06-05 12:25:11 
##  
## # Variables were mapped as follows:
## Case identifier:     case_id 
## Activity identifier:     activity 
## Resource identifier:     resource 
## Activity instance identifier:    activity_instance_id 
## Timestamp:           timestamp 
## Lifecycle transition:        lifecycle 
## 
## # A tibble: 15,214 × 34
##    case_id activity      lifec…¹ resou…² timestamp             age   crp diagn…³
##    <chr>   <fct>         <fct>   <fct>   <dttm>              <dbl> <dbl> <chr>  
##  1 A       ER Registrat… comple… A       2014-10-22 11:15:41    85    NA A      
##  2 A       Leucocytes    comple… B       2014-10-22 11:27:00    NA    NA <NA>   
##  3 A       CRP           comple… B       2014-10-22 11:27:00    NA   210 <NA>   
##  4 A       LacticAcid    comple… B       2014-10-22 11:27:00    NA    NA <NA>   
##  5 A       ER Triage     comple… C       2014-10-22 11:33:37    NA    NA <NA>   
##  6 A       ER Sepsis Tr… comple… A       2014-10-22 11:34:00    NA    NA <NA>   
##  7 A       IV Liquid     comple… A       2014-10-22 14:03:47    NA    NA <NA>   
##  8 A       IV Antibioti… comple… A       2014-10-22 14:03:47    NA    NA <NA>   
##  9 A       Admission NC  comple… D       2014-10-22 14:13:19    NA    NA <NA>   
## 10 A       CRP           comple… B       2014-10-24 09:00:00    NA  1090 <NA>   
## # … with 15,204 more rows, 26 more variables: diagnosticartastrup <lgl>,
## #   diagnosticblood <lgl>, diagnosticecg <lgl>, diagnosticic <lgl>,
## #   diagnosticlacticacid <lgl>, diagnosticliquor <lgl>, diagnosticother <lgl>,
## #   diagnosticsputum <lgl>, diagnosticurinaryculture <lgl>,
## #   diagnosticurinarysediment <lgl>, diagnosticxthorax <lgl>, disfuncorg <lgl>,
## #   hypotensie <lgl>, hypoxie <lgl>, infectionsuspected <lgl>, infusion <lgl>,
## #   lacticacid <dbl>, leucocytes <chr>, oligurie <lgl>, …
…
## 981 traces 
## 1143 cases 
## 150291 instances of 624 activities 
## 43 resources 
## Events occurred from 2005-01-03 until 2008-03-20 
##  
## # Variables were mapped as follows:
## Case identifier:     case_id 
## Activity identifier:     activity 
## Resource identifier:     group 
## Activity instance identifier:    activity_instance_id 
## Timestamp:           timestamp 
## Lifecycle transition:        lifecycle 
## 
## # A tibble: 150,291 × 98
##    case_id  activity   lifec…¹ group timestamp           CASE_…² CASE_…³ CASE_…⁴
##    <chr>    <fct>      <fct>   <fct> <dttm>                <dbl>   <dbl>   <dbl>
##  1 00000000 1e consul… comple… Radi… 2005-01-03 00:00:00      33      NA      NA
##  2 00000000 administr… comple… Radi… 2005-01-03 00:00:00      33      NA      NA
##  3 00000000 verlosk.-… comple… Nurs… 2005-01-05 00:00:00      33      NA      NA
##  4 00000000 echografi… comple… Obst… 2005-01-05 00:00:00      33      NA      NA
##  5 00000000 1e consul… comple… Nurs… 2005-01-05 00:00:00      33      NA      NA
##  6 00000000 administr… comple… Nurs… 2005-01-05 00:00:00      33      NA      NA
##  7 00000000 simulator… comple… Radi… 2005-01-24 00:00:00      33      NA      NA
##  8 00000000 behandelt… comple… Radi… 2005-01-31 00:00:00      33      NA      NA
##  9 00000000 telethera… comple… Radi… 2005-01-31 00:00:00      33      NA      NA
## 10 00000000 aanname l… comple… Gene… 2005-02-15 00:00:00      33      NA      NA
## # … with 150,281 more rows, 90 more variables: `CASE_age:3` <dbl>,
## #   `CASE_age:4` <dbl>, `CASE_age:5` <dbl>, CASE_diagnosis <chr>,
## #   CASE_diagnosis_treatment_combination_id <dbl>,
## #   `CASE_diagnosis_treatment_combination_id:1` <dbl>,
## #   `CASE_diagnosis_treatment_combination_id:10` <dbl>,
## #   `CASE_diagnosis_treatment_combination_id:11` <dbl>,
## #   `CASE_diagnosis_treatment_combination_id:12` <dbl>, …
…
## 288 traces 
## 10000 cases 
## 49951 instances of 16 activities 
## 566 resources 
## Events occurred from 2012-12-13 10:13:18 until 2015-12-13 13:55:15 
##  
## # Variables were mapped as follows:
## Case identifier:     case_id 
## Activity identifier:     activity 
## Resource identifier:     resource 
## Activity instance identifier:    activity_instance_id 
## Timestamp:           timestamp 
## Lifecycle transition:        lifecycle 
## 
## # A tibble: 49,951 × 25
##    case_id activity lifecycle resou…¹ timestamp           actor…² actred blocked
##    <chr>   <fct>    <fct>     <fct>   <dttm>              <lgl>   <lgl>  <lgl>  
##  1 A       NEW      complete  ResA    2012-12-16 19:33:10 NA      NA     FALSE  
##  2 A       FIN      complete  <NA>    2013-12-15 19:00:37 NA      NA     NA     
##  3 A       RELEASE  complete  <NA>    2013-12-16 03:53:38 NA      NA     NA     
##  4 A       CODE OK  complete  <NA>    2013-12-17 12:56:29 FALSE   FALSE  NA     
##  5 A       BILLED   complete  ResB    2013-12-19 03:44:31 NA      NA     NA     
##  6 B       NEW      complete  ResA    2012-12-16 19:33:50 NA      NA     FALSE  
##  7 B       DELETE   complete  ResC    2013-10-19 12:37:05 NA      NA     NA     
##  8 C       NEW      complete  ResA    2013-01-13 21:04:24 NA      NA     FALSE  
##  9 C       FIN      complete  <NA>    2013-04-17 19:59:43 NA      NA     NA     
## 10 C       RELEASE  complete  <NA>    2013-04-18 02:30:35 NA      NA     NA     
## # … with 49,941 more rows, 17 more variables: casetype <chr>, closecode <chr>,
## #   diagnosis <chr>, flaga <lgl>, flagb <lgl>, flagc <lgl>, flagd <lgl>,
## #   iscancelled <lgl>, isclosed <lgl>, msgcode <chr>, msgcount <dbl>,
## #   msgtype <chr>, speciality <chr>, state <chr>, version <chr>,
## #   activity_instance_id <chr>, .order <int>, and abbreviated variable names
## #   ¹​resource, ²​actorange
…
## 4 traces 
## 4 cases 
## 34724 instances of 2 activities 
## 16 resources 
## Events occurred from 2006-06-17 until 2012-03-26 
##  
## # Variables were mapped as follows:
## Case identifier:     vehicleclass 
## Activity identifier:     notificationtype 
## Resource identifier:     resource 
## Activity instance identifier:    activity_instance_id 
## Timestamp:           timestamp 
## Lifecycle transition:        lifecycle 
## 
## # A tibble: 34,724 × 18
##    case_id activity   lifec…¹ resou…² timestamp           amount article dismi…³
##    <chr>   <fct>      <fct>   <fct>   <dttm>              <chr>    <dbl> <chr>  
##  1 A1      Create Fi… comple… 561     2006-07-24 00:00:00 35.0       157 NIL    
##  2 A1      Send Fine  comple… <NA>    2006-12-05 00:00:00 <NA>        NA <NA>   
##  3 A100    Create Fi… comple… 561     2006-08-02 00:00:00 35.0       157 NIL    
##  4 A100    Send Fine  comple… <NA>    2006-12-12 00:00:00 <NA>        NA <NA>   
##  5 A100    Insert Fi… comple… <NA>    2007-01-15 00:00:00 <NA>        NA <NA>   
##  6 A100    Add penal… comple… <NA>    2007-03-16 00:00:00 71.5        NA <NA>   
##  7 A100    Send for … comple… <NA>    2009-03-30 00:00:00 <NA>        NA <NA>   
##  8 A10000  Create Fi… comple… 561     2007-03-09 00:00:00 36.0       157 NIL    
##  9 A10000  Send Fine  comple… <NA>    2007-07-17 00:00:00 <NA>        NA <NA>   
## 10 A10000  Insert Fi… comple… <NA>    2007-08-02 00:00:00 <NA>        NA <NA>   
## # … with 34,714 more rows, 10 more variables: expense <chr>, lastsent <chr>,
## #   matricola <dbl>, notificationtype <chr>, paymentamount <dbl>, points <dbl>,
## #   totalpaymentamount <chr>, vehicleclass <chr>, activity_instance_id <chr>,
## #   .order <int>, and abbreviated variable names ¹​lifecycle, ²​resource,
## #   ³​dismissal
…
## # Log of 5442 events consisting of:
## 7 traces 
## 500 cases 
## 2721 instances of 7 activities 
## 7 resources 
## Events occurred from 2017-01-02 11:41:53 until 2018-05-05 07:16:02 
##  
## # Variables were mapped as follows:
## Case identifier:     patient 
## Activity identifier:     handling 
## Resource identifier:     employee 
## Timestamps:      start, complete 
## 
## # A tibble: 2,721 × 7
##    handling     patient employee handling_id .order complete           
##    <fct>        <chr>   <fct>    <chr>        <int> <dttm>             
##  1 Registration 1       r1       1                1 2017-01-02 12:40:20
##  2 Registration 2       r1       2                2 2017-01-02 15:16:38
##  3 Registration 3       r1       3                3 2017-01-04 06:36:54
##  4 Registration 4       r1       4                4 2017-01-04 04:25:06
##  5 Registration 5       r1       5                5 2017-01-04 20:07:50
##  6 Registration 6       r1       6                6 2017-01-04 18:12:46
##  7 Registration 7       r1       7                7 2017-01-05 06:27:49
##  8 Registration 8       r1       8                8 2017-01-05 07:58:17
##  9 Registration 9       r1       9                9 2017-01-06 07:18:32
## 10 Registration 10      r1       10              10 2017-01-06 09:13:28
## # … with 2,711 more rows, and 1 more variable: start <dttm>
…
