bupaR Docs | Mutate logs
…
group_by_activity_resource - group by activity resource
pair

group_by_activity_instance - group by activity
instances.

For example, the number of cases in which a specific resource occurs,
can be computed as follows:

sepsis %>%
    group_by_resource %>%
    n_cases()

## # A tibble: 26 × 2
##    resource n_cases
##    <fct>      <int>
##  1 ?            294
##  2 A            985
##  3 B           1013
##  4 C           1050
##  5 D             46
##  6 E            782
##  7 F            200
##  8 G            147
##  9 H             50
## 10 I            118
## # ℹ 16 more rows
…
Grouping on id

When you want to group on a combination of mapping variables, for
example, for each combination of case and activity,
you can use group_by_ids(). The following examples counts
the number of events per case and per activity:

patients %>%
    group_by_ids(case_id, activity_id) %>%
    n_events()  

## # A tibble: 2,721 × 3
##    patient handling              n_events
##    <chr>   <fct>                    <int>
##  1 1       Blood test                   2
##  2 1       Check-out                    2
##  3 1       Discuss Results              2
##  4 1       MRI SCAN                     2
##  5 1       Registration                 2
##  6 1       Triage and Assessment        2
##  7 10      Check-out                    2
##  8 10      Discuss Results              2
##  9 10      Registration                 2
## 10 10      Triage and Assessment        2
## # ℹ 2,711 more rows
…
## 846 traces 
## 1050 cases 
## 15214 instances of 16 activities 
## 26 resources 
## Events occurred from 2013-11-07 08:18:29 until 2015-06-05 12:25:11 
##  
## # Variables were mapped as follows:
## Case identifier:     case_id 
## Activity identifier:     activity 
## Resource identifier:     resource 
## Activity instance identifier:    activity_instance_id 
## Timestamp:           timestamp 
## Lifecycle transition:        lifecycle 
## 
## # A tibble: 15,214 × 35
##    case_id activity  lifecycle resource timestamp             age   crp diagnose
##    <chr>   <fct>     <fct>     <fct>    <dttm>              <dbl> <dbl> <chr>   
##  1 A       ER Regis… complete  A        2014-10-22 11:15:41    85    NA A       
##  2 A       Leucocyt… complete  B        2014-10-22 11:27:00    NA    NA <NA>    
##  3 A       CRP       complete  B        2014-10-22 11:27:00    NA   210 <NA>    
##  4 A       LacticAc… complete  B        2014-10-22 11:27:00    NA    NA <NA>    
##  5 A       ER Triage complete  C        2014-10-22 11:33:37    NA    NA <NA>    
##  6 A       ER Sepsi… complete  A        2014-10-22 11:34:00    NA    NA <NA>    
##  7 A       IV Liquid complete  A        2014-10-22 14:03:47    NA    NA <NA>    
##  8 A       IV Antib… complete  A        2014-10-22 14:03:47    NA    NA <NA>    
##  9 A       Admissio… complete  D        2014-10-22 14:13:19    NA    NA <NA>    
## 10 A       CRP       complete  B        2014-10-24 09:00:00    NA  1090 <NA>    
## # ℹ 15,204 more rows
## # ℹ 27 more variables: diagnosticartastrup <lgl>, diagnosticblood <lgl>,
## #   diagnosticecg <lgl>, diagnosticic <lgl>, diagnosticlacticacid <lgl>,
## #   diagnosticliquor <lgl>, diagnosticother <lgl>, diagnosticsputum <lgl>,
## #   diagnosticurinaryculture <lgl>, diagnosticurinarysediment <lgl>,
## #   diagnosticxthorax <lgl>, disfuncorg <lgl>, hypotensie <lgl>, hypoxie <lgl>,
## #   infectionsuspected <lgl>, infusion <lgl>, lacticacid <dbl>, …
…
## 44 traces 
## 10000 cases 
## 34724 instances of 11 activities 
## 16 resources 
## Events occurred from 2006-06-17 until 2012-03-26 
##  
## # Variables were mapped as follows:
## Case identifier:     case_id 
## Activity identifier:     activity 
## Resource identifier:     resource 
## Activity instance identifier:    activity_instance_id 
## Timestamp:           timestamp 
## Lifecycle transition:        lifecycle 
## 
## # A tibble: 34,724 × 8
##    vehicleclass case_id activity        activity_instance_id timestamp          
##    <chr>        <chr>   <fct>           <chr>                <dttm>             
##  1 A            A1      Create Fine     1                    2006-07-24 00:00:00
##  2 <NA>         A1      Send Fine       2                    2006-12-05 00:00:00
##  3 A            A100    Create Fine     3                    2006-08-02 00:00:00
##  4 <NA>         A100    Send Fine       4                    2006-12-12 00:00:00
##  5 <NA>         A100    Insert Fine No… 5                    2007-01-15 00:00:00
##  6 <NA>         A100    Add penalty     6                    2007-03-16 00:00:00
##  7 <NA>         A100    Send for Credi… 7                    2009-03-30 00:00:00
##  8 A            A10000  Create Fine     8                    2007-03-09 00:00:00
##  9 <NA>         A10000  Send Fine       9                    2007-07-17 00:00:00
## 10 <NA>         A10000  Insert Fine No… 10                   2007-08-02 00:00:00
## # ℹ 34,714 more rows
## # ℹ 3 more variables: resource <fct>, lifecycle <fct>, .order <int>

By setting the argument force_df = TRUE, the
mapping-variables will not be retained, and the output will be a
data.frame, and not an eventlog object. Note that doing so
will hold even in the case that all mapping variables are selected.

traffic_fines %>%
    select(case_id, vehicleclass, amount, force_df = TRUE)

## # A tibble: 34,724 × 3
##    case_id vehicleclass amount
##    <chr>   <chr>        <chr> 
##  1 A1      A            35.0  
##  2 A1      <NA>         <NA>  
##  3 A100    A            35.0  
##  4 A100    <NA>         <NA>  
##  5 A100    <NA>         <NA>  
##  6 A100    <NA>         71.5  
##  7 A100    <NA>         <NA>  
##  8 A10000  A            36.0  
##  9 A10000  <NA>         <NA>  
## 10 A10000  <NA>         <NA>  
## # ℹ 34,714 more rows

Selecting id

Similar to group_by_ids(), select_ids() can
be used to select the mapping variables.

patients %>%
    select_ids(case_id, activity_id)

## # A tibble: 5,442 × 2
##    patient handling    
##    <chr>   <fct>       
##  1 1       Registration
##  2 2       Registration
##  3 3       Registration
##  4 4       Registration
##  5 5       Registration
##  6 6       Registration
##  7 7       Registration
##  8 8       Registration
##  9 9       Registration
## 10 10      Registration
## # ℹ 5,432 more rows
…
## 7 traces 
## 500 cases 
## 2721 instances of 7 activities 
## 7 resources 
## Events occurred from 2017-01-02 11:41:53 until 2018-05-05 07:16:02 
##  
## # Variables were mapped as follows:
## Case identifier:     patient 
## Activity identifier:     handling 
## Resource identifier:     employee 
## Activity instance identifier:    handling_id 
## Timestamp:           time 
## Lifecycle transition:        registration_type 
## 
## # A tibble: 5,442 × 7
##    handling   patient employee handling_id registration_type time               
##    <fct>      <chr>   <fct>    <chr>       <fct>             <dttm>             
##  1 Triage an… 500     r2       1000        complete          2018-05-05 07:16:02
##  2 Discuss R… 495     r6       2229        complete          2018-05-05 02:49:57
##  3 X-Ray      498     r5       1734        complete          2018-05-05 01:34:30
##  4 Triage an… 500     r2       1000        start             2018-05-04 23:53:27
##  5 Triage an… 499     r2       999         complete          2018-05-04 23:53:27
##  6 Discuss R… 495     r6       2229        start             2018-05-04 23:50:05
##  7 Discuss R… 489     r6       2223        complete          2018-05-04 23:50:05
##  8 X-Ray      498     r5       1734        start             2018-05-04 21:50:07
##  9 X-Ray      497     r5       1733        complete          2018-05-04 21:50:07
## 10 Discuss R… 489     r6       2223        start             2018-05-04 20:24:44
## # ℹ 5,432 more rows
## # ℹ 1 more variable: .order <int>
…
