Xes Files
…
Create list of cases

In certain circumstances, it might be useful to have a separate list
of cases with case attributes. This can be obtained using function
read_xes_cases(). The argument for this function remains
the same xesfile. The result is a data.frame
with one row for each case and one column for each attribute.
Non-existing attributes for a specific case are filled in with NA`s.
Below, this function is illustrated using the repairExample
event log, which has one case attribute called description. For
the sake of illustration the entire event log is also imported.

read_xes_cases("https://bupar.net/eventdata/repairExample.xes")

## # A tibble: 1,104 × 2
##    CASE_concept_name CASE_description          
##    <chr>             <chr>                     
##  1 1                 Simulated process instance
##  2 10                Simulated process instance
##  3 100               Simulated process instance
##  4 1000              Simulated process instance
##  5 1001              Simulated process instance
##  6 1002              Simulated process instance
##  7 1003              Simulated process instance
##  8 1004              Simulated process instance
##  9 1005              Simulated process instance
## 10 1006              Simulated process instance
## # … with 1,094 more rows
…
## 77 traces 
## 1104 cases 
## 11855 instances of 8 activities 
## 13 resources 
## Events occurred from 1970-01-01 05:36:00 until 1970-01-24 08:16:00 
##  
## # Variables were mapped as follows:
## Case identifier:     CASE_concept_name 
## Activity identifier:     activity_id 
## Resource identifier:     resource_id 
## Activity instance identifier:    activity_instance_id 
## Timestamp:           timestamp 
## Lifecycle transition:        lifecycle_id 
## 
## # A tibble: 11,855 × 12
##    CASE_concep…¹ CASE_…² activ…³ defec…⁴ defec…⁵ lifec…⁶ numbe…⁷ resou…⁸ phone…⁹
##    <chr>         <chr>   <chr>   <chr>   <chr>   <chr>   <chr>   <chr>   <chr>  
##  1 1             Simula… Regist… <NA>    <NA>    comple… <NA>    System  <NA>   
##  2 1             Simula… Analyz… <NA>    <NA>    start   <NA>    Tester3 <NA>   
##  3 1             Simula… Analyz… <NA>    6       comple… <NA>    Tester3 T2     
##  4 1             Simula… Repair… <NA>    <NA>    start   <NA>    Solver… <NA>   
##  5 1             Simula… Repair… <NA>    <NA>    comple… <NA>    Solver… <NA>   
##  6 1             Simula… Test R… <NA>    <NA>    start   <NA>    Tester3 <NA>   
##  7 1             Simula… Test R… true    <NA>    comple… 0       Tester3 <NA>   
##  8 1             Simula… Inform… <NA>    <NA>    comple… <NA>    System  <NA>   
##  9 1             Simula… Archiv… true    <NA>    comple… 0       System  <NA>   
## 10 10            Simula… Regist… <NA>    <NA>    comple… <NA>    System  <NA>   
## # … with 11,845 more rows, 3 more variables: timestamp <dttm>,
## #   activity_instance_id <int>, .order <int>, and abbreviated variable names
## #   ¹​CASE_concept_name, ²​CASE_description, ³​activity_id, ⁴​defectFixed,
## #   ⁵​defectType, ⁶​lifecycle_id, ⁷​numberRepairs, ⁸​resource_id, ⁹​phoneType
…
