Enriching event data
…
## 7 traces 
## 500 cases 
## 2721 instances of 7 activities 
## 7 resources 
## Events occurred from 2017-01-02 11:41:53 until 2018-05-05 07:16:02 
##  
## Variables were mapped as follows:
## Case identifier:     patient 
## Activity identifier:     handling 
## Resource identifier:     employee 
## Activity instance identifier:    handling_id 
## Timestamp:           time 
## Lifecycle transition:        registration_type 
## 
## # A tibble: 5,442 x 8
##    handling patient employee handling_id registration_ty~
##    <fct>    <chr>   <fct>    <chr>       <fct>           
##  1 Registr~ 1       r1       1           start           
##  2 Registr~ 2       r1       2           start           
##  3 Registr~ 3       r1       3           start           
##  4 Registr~ 4       r1       4           start           
##  5 Registr~ 5       r1       5           start           
##  6 Registr~ 6       r1       6           start           
##  7 Registr~ 7       r1       7           start           
##  8 Registr~ 8       r1       8           start           
##  9 Registr~ 9       r1       9           start           
## 10 Registr~ 10      r1       10          start           
## # ... with 5,432 more rows, and 3 more variables: time <dttm>,
## #   .order <int>, throughput_time_case <dbl>

A new variable, “throughput_time_case”, has now been added to the event log as a case attribute. This new attribute can than be directly used in later analysis.

For some metrics, there are multiple output values that are candidate to be appended. For example, considered the output of the trace coverage metric.

patients %>% 
    trace_coverage(level = "case")

## # A tibble: 500 x 4
##    patient trace                                          absolute relative
##    <chr>   <chr>                                             <int>    <dbl>
##  1 2       Registration,Triage and Assessment,X-Ray,Disc~      258    0.516
##  2 5       Registration,Triage and Assessment,X-Ray,Disc~      258    0.516
##  3 8       Registration,Triage and Assessment,X-Ray,Disc~      258    0.516
##  4 9       Registration,Triage and Assessment,X-Ray,Disc~      258    0.516
##  5 10      Registration,Triage and Assessment,X-Ray,Disc~      258    0.516
##  6 11      Registration,Triage and Assessment,X-Ray,Disc~      258    0.516
##  7 14      Registration,Triage and Assessment,X-Ray,Disc~      258    0.516
##  8 17      Registration,Triage and Assessment,X-Ray,Disc~      258    0.516
##  9 18      Registration,Triage and Assessment,X-Ray,Disc~      258    0.516
## 10 19      Registration,Triage and Assessment,X-Ray,Disc~      258    0.516
## # ... with 490 more rows
…
## 7 traces 
## 500 cases 
## 2721 instances of 7 activities 
## 7 resources 
## Events occurred from 2017-01-02 11:41:53 until 2018-05-05 07:16:02 
##  
## Variables were mapped as follows:
## Case identifier:     patient 
## Activity identifier:     handling 
## Resource identifier:     employee 
## Activity instance identifier:    handling_id 
## Timestamp:           time 
## Lifecycle transition:        registration_type 
## 
## # A tibble: 5,442 x 9
##    handling patient employee handling_id registration_ty~
##    <fct>    <chr>   <fct>    <chr>       <fct>           
##  1 Registr~ 1       r1       1           start           
##  2 Registr~ 2       r1       2           start           
##  3 Registr~ 3       r1       3           start           
##  4 Registr~ 4       r1       4           start           
##  5 Registr~ 5       r1       5           start           
##  6 Registr~ 6       r1       6           start           
##  7 Registr~ 7       r1       7           start           
##  8 Registr~ 8       r1       8           start           
##  9 Registr~ 9       r1       9           start           
## 10 Registr~ 10      r1       10          start           
## # ... with 5,432 more rows, and 4 more variables: time <dttm>,
## #   .order <int>, trace <chr>, absolute_case_trace_coverage <int>
…
## 7 traces 
## 500 cases 
## 2721 instances of 7 activities 
## 7 resources 
## Events occurred from 2017-01-02 11:41:53 until 2018-05-05 07:16:02 
##  
## Variables were mapped as follows:
## Case identifier:     patient 
## Activity identifier:     handling 
## Resource identifier:     employee 
## Activity instance identifier:    handling_id 
## Timestamp:           time 
## Lifecycle transition:        registration_type 
## 
## # A tibble: 5,442 x 9
##    handling patient employee handling_id registration_ty~
##    <fct>    <chr>   <fct>    <chr>       <fct>           
##  1 Registr~ 1       r1       1           start           
##  2 Registr~ 2       r1       2           start           
##  3 Registr~ 3       r1       3           start           
##  4 Registr~ 4       r1       4           start           
##  5 Registr~ 5       r1       5           start           
##  6 Registr~ 6       r1       6           start           
##  7 Registr~ 7       r1       7           start           
##  8 Registr~ 8       r1       8           start           
##  9 Registr~ 9       r1       9           start           
## 10 Registr~ 10      r1       10          start           
## # ... with 5,432 more rows, and 4 more variables: time <dttm>,
## #   .order <int>, trace <chr>, relative_case_trace_coverage <dbl>
…
## 7 traces 
## 500 cases 
## 2721 instances of 7 activities 
## 7 resources 
## Events occurred from 2017-01-02 11:41:53 until 2018-05-05 07:16:02 
##  
## Variables were mapped as follows:
## Case identifier:     patient 
## Activity identifier:     handling 
## Resource identifier:     employee 
## Activity instance identifier:    handling_id 
## Timestamp:           time 
## Lifecycle transition:        registration_type 
## 
## # A tibble: 5,442 x 8
##    handling patient employee handling_id registration_ty~
##    <fct>    <chr>   <fct>    <chr>       <fct>           
##  1 Registr~ 1       r1       1           start           
##  2 Registr~ 2       r1       2           start           
##  3 Registr~ 3       r1       3           start           
##  4 Registr~ 4       r1       4           start           
##  5 Registr~ 5       r1       5           start           
##  6 Registr~ 6       r1       6           start           
##  7 Registr~ 7       r1       7           start           
##  8 Registr~ 8       r1       8           start           
##  9 Registr~ 9       r1       9           start           
## 10 Registr~ 10      r1       10          start           
## # ... with 5,432 more rows, and 3 more variables: time <dttm>,
## #   .order <int>, had_MRI <lgl>
…
## 7 traces 
## 500 cases 
## 2721 instances of 7 activities 
## 7 resources 
## Events occurred from 2017-01-02 11:41:53 until 2018-05-05 07:16:02 
##  
## Variables were mapped as follows:
## Case identifier:     patient 
## Activity identifier:     handling 
## Resource identifier:     employee 
## Activity instance identifier:    handling_id 
## Timestamp:           time 
## Lifecycle transition:        registration_type 
## 
## # A tibble: 5,442 x 10
##    handling patient employee handling_id registration_ty~
##    <fct>    <chr>   <fct>    <chr>       <fct>           
##  1 Registr~ 1       r1       1           start           
##  2 Registr~ 2       r1       2           start           
##  3 Registr~ 3       r1       3           start           
##  4 Registr~ 4       r1       4           start           
##  5 Registr~ 5       r1       5           start           
##  6 Registr~ 6       r1       6           start           
##  7 Registr~ 7       r1       7           start           
##  8 Registr~ 8       r1       8           start           
##  9 Registr~ 9       r1       9           start           
## 10 Registr~ 10      r1       10          start           
## # ... with 5,432 more rows, and 5 more variables: time <dttm>,
## #   .order <int>, trace <chr>, relative_case_trace_coverage <dbl>,
## #   frequent <lgl>
…
