Read XES-files
…
In case the activity instance identifier is missing, a default activity instance identifier column will be added. This column will regard every event in the log as a distinct activity instance. A warning will be emitted noting that you should check whether this is a justified assumption.

If available, missing information can be added manually to the event log object in R by overwritting the variables, e.g. with mutate.

Additional elements

Note that both traces and events can have additional elements in the XES-files. These will be added as extra variables in the resulting event log. Attributes at a the level of traces will get the prefix CASE_ in their name. 1

Create list of cases

In certain circumstances, it might be useful to have a separate list of cases with case attributes. This can be obtained using function read_xes_cases. The argument for this function is the same, i.e. a xesfile. The result is a data.frame with one row for each case and one column for each attribute. Non-existing attributes for a specific case are filled in with NA. Below, this function is illustrated using the repairExample event log, which has one case attribute called description. For the sake of illustration, the entire event log is also imported.

read_xes_cases("https://bupar.net/eventdata/repairExample.xes")

## # A tibble: 1,104 x 2
##    CASE_concept_name CASE_description          
##    <chr>             <chr>                     
##  1 1                 Simulated process instance
##  2 10                Simulated process instance
##  3 100               Simulated process instance
##  4 1000              Simulated process instance
##  5 1001              Simulated process instance
##  6 1002              Simulated process instance
##  7 1003              Simulated process instance
##  8 1004              Simulated process instance
##  9 1005              Simulated process instance
## 10 1006              Simulated process instance
## # ... with 1,094 more rows

read_xes("https://bupar.net/eventdata/repairExample.xes")

## Warning in read_xes("https://bupar.net/eventdata/repairExample.xes"): No
## activity instance identifier specified in xes-file. By default considered
## each event as a different activity instance. Please check!

## Event log consisting of:
## 11855 events
## 77 traces
## 1104 cases
## 8 activities
## 11855 activity instances
## 
## # A tibble: 11,855 x 12
##    CASE_concept_name CASE_description   activity_id defectFixed defectType
##    <chr>             <chr>              <fct>       <chr>       <chr>     
##  1 1                 Simulated process~ Register    <NA>        <NA>      
##  2 1                 Simulated process~ Analyze De~ <NA>        <NA>      
##  3 1                 Simulated process~ Analyze De~ <NA>        6         
##  4 1                 Simulated process~ Repair (Co~ <NA>        <NA>      
##  5 1                 Simulated process~ Repair (Co~ <NA>        <NA>      
##  6 1                 Simulated process~ Test Repair <NA>        <NA>      
##  7 1                 Simulated process~ Test Repair true        <NA>      
##  8 1                 Simulated process~ Inform User <NA>        <NA>      
##  9 1                 Simulated process~ Archive Re~ true        <NA>      
## 10 10                Simulated process~ Register    <NA>        <NA>      
## # ... with 11,845 more rows, and 7 more variables: lifecycle_id <fct>,
## #   numberRepairs <chr>, resource_id <fct>, phoneType <chr>,
## #   timestamp <dttm>, activity_instance_id <chr>, .order <int>
…
